<?xml version="1.0" encoding="UTF-8"?>
<svg width="25px" height="46px" viewBox="0 0 25 46" version="1.1" xmlns="http://www.w3.org/2000/svg" xmlns:xlink="http://www.w3.org/1999/xlink">
    <!-- Generator: sketchtool 50.2 (55047) - http://www.bohemiancoding.com/sketch -->
    <title>B238BACA-D495-4E9D-B9A7-C4A2067933B0</title>
    <desc>Created with sketchtool.</desc>
    <defs></defs>
    <g id="Page-1" stroke="none" stroke-width="1" fill="none" fill-rule="evenodd">
        <g id="spliceminicart" transform="translate(-1385.000000, -485.000000)" fill="#FFFFFF">
            <g id="headerBanner" transform="translate(0.000000, 217.000000)">
                <g id="Group-5">
                    <path d="M1406.90476,313.135043 C1407.22222,313.449573 1407.61905,313.606838 1408.05556,313.606838 C1408.49206,313.606838 1408.88889,313.449573 1409.20635,313.135043 C1409.84127,312.505983 1409.84127,311.483761 1409.20635,310.854701 L1388.96825,290.803419 L1409.20635,270.752137 C1409.84127,270.123077 1409.84127,269.100855 1409.20635,268.471795 C1408.57143,267.842735 1407.53968,267.842735 1406.90476,268.471795 L1385.47619,289.663248 C1384.84127,290.292308 1384.84127,291.31453 1385.47619,291.94359 L1406.90476,313.135043 L1406.90476,313.135043 Z" id="arrowRight" transform="translate(1397.341270, 290.803419) scale(-1, 1) translate(-1397.341270, -290.803419) "></path>
                </g>
            </g>
        </g>
    </g>
</svg>